…
### Unit 1: Univariate Data Analysis

Load the dataset and summarize its structure.

``` r
dataset <- read_csv("EDA_Ecommerce_Assessment.csv", show_col_types = FALSE)
dataset
```

    ## # A tibble: 3,000 × 10
    ##    Customer_ID Gender   Age Browsing_Time Purchase_Amount Number_of_Items
    ##          <dbl> <chr>  <dbl>         <dbl>           <dbl>           <dbl>
    ##  1           1 Male      65          46.6           232.                6
    ##  2           2 Female    19          98.8           473.                8
    ##  3           3 Male      23          79.5           338.                1
    ##  4           4 Male      45          95.8            37.1               7
    ##  5           5 Male      46          33.4           236.                3
    ##  6           6 Female    43          83.4           124.                9
    ##  7           7 Male      42          32.4           238.                6
    ##  8           8 Male      29         113.            230.                5
    ##  9           9 Male      22          76.7           293.                8
    ## 10          10 Female    51          39.6           182.                8
    ## # ℹ 2,990 more rows
    ## # ℹ 4 more variables: Discount_Applied <dbl>, Total_Transactions <dbl>,
    ## #   Category <chr>, Satisfaction_Score <dbl>
…
