…
Long Dataset

``` r
long_dataset <- dataset %>%
  pivot_longer(cols = c("NKp30", "KIR3DL1", "NKp44", "KIR2DL1", "GranzymeB", "CXCR6", "CD161", "KIR2DS4", "NKp46", "NKG2D", "NKG2C", "X2B4", "CD69", "KIR3DL1.S1", "CD2", "KIR2DL5", "DNAM.1", "CD4", "CD8", "CD57", "TRAIL", "KIR3DL2", "MIP1b", "CD107a", "GM.CSF", "CD16", "TNFa", "ILT2", "Perforin", "KIR2DL2.L3.S2", "KIR2DL3", "NKG2A", "NTB.A", "CD56", "INFg"), names_to="protein", values_to="amount")
long_dataset
```

    ## # A tibble: 1,750,000 × 2
    ##    protein   amount
    ##    <chr>      <dbl>
    ##  1 NKp30      0.188
    ##  2 KIR3DL1    3.62 
    ##  3 NKp44     -0.561
    ##  4 KIR2DL1   -0.294
    ##  5 GranzymeB  2.48 
    ##  6 CXCR6     -0.145
    ##  7 CD161     -0.315
    ##  8 KIR2DS4    1.94 
    ##  9 NKp46      4.08 
    ## 10 NKG2D      2.62 
    ## # ℹ 1,749,990 more rows

2.  Use group_by and summarise to find the median protein level and the
    median absolute deviation of the protein level for each marker.

``` r
median_mad <- long_dataset %>%
  group_by(protein) %>%
  summarise(
    median = median(amount),
    mad = mad(amount))
median_mad
```

    ## # A tibble: 35 × 3
    ##    protein  median   mad
    ##    <chr>     <dbl> <dbl>
    ##  1 CD107a  -0.122  0.609
    ##  2 CD16     5.12   0.874
    ##  3 CD161    0.726  1.69 
    ##  4 CD2      3.95   1.68 
    ##  5 CD4     -0.204  0.395
    ##  6 CD56     5.71   0.998
    ##  7 CD57     3.07   1.99 
    ##  8 CD69     4.59   1.02 
    ##  9 CD8      2.40   2.29 
    ## 10 CXCR6   -0.0581 0.727
    ## # ℹ 25 more rows
…
