…
  )

data_clean
```

    ## # A tibble: 10,532 × 7
    ##    Age[,1] `Annual Income (K$)`[,1] Gender `Product Category Purchased`
    ##      <dbl>                    <dbl> <fct>  <fct>                       
    ##  1   0.832                    0.489 1      3                           
    ##  2   1.70                    -0.674 1      4                           
    ##  3   0.161                    0.605 2      3                           
    ##  4  -0.778                   -1.14  2      2                           
    ##  5   1.10                    -0.470 1      5                           
    ##  6  -1.25                    -1.20  2      4                           
    ##  7  -0.375                    0.314 2      2                           
    ##  8   0.832                    1.22  2      1                           
    ##  9  -0.509                   -1.52  1      1                           
    ## 10  -0.241                    0.489 1      3                           
    ## # ℹ 10,522 more rows
    ## # ℹ 3 more variables: `Average Spend per Visit ($)` <dbl[,1]>,
    ## #   `Number of Visits in Last 6 Months` <dbl[,1]>, `Customer Segment` <fct>
…
