…
``` r
heart <- read_csv("heart.csv", show_col_types = FALSE)
heart
```

    ## # A tibble: 918 × 12
    ##      Age Sex   ChestPainType RestingBP Cholesterol FastingBS RestingECG MaxHR
    ##    <dbl> <chr> <chr>             <dbl>       <dbl>     <dbl> <chr>      <dbl>
    ##  1    40 M     ATA                 140         289         0 Normal       172
    ##  2    49 F     NAP                 160         180         0 Normal       156
    ##  3    37 M     ATA                 130         283         0 ST            98
    ##  4    48 F     ASY                 138         214         0 Normal       108
    ##  5    54 M     NAP                 150         195         0 Normal       122
    ##  6    39 M     NAP                 120         339         0 Normal       170
    ##  7    45 F     ATA                 130         237         0 Normal       170
    ##  8    54 M     ATA                 110         208         0 Normal       142
    ##  9    37 M     ASY                 140         207         0 Normal       130
    ## 10    48 F     ATA                 120         284         0 Normal       120
    ## # ℹ 908 more rows
    ## # ℹ 4 more variables: ExerciseAngina <chr>, Oldpeak <dbl>, ST_Slope <chr>,
    ## #   HeartDisease <dbl>
…
