…
  
data_clean
```

    ## # A tibble: 5,585 × 11
    ##     AGER RSCRRACE HHKIDS18 FMARITAL HIEDUC GENHEALT LIFPRTNR CONSTAT1 PREGNUM
    ##    <dbl> <fct>       <dbl> <fct>    <fct>  <fct>       <dbl> <fct>      <dbl>
    ##  1    29 3               0 5        4      4               1 3              0
    ##  2    18 4               0 5        5      1               0 6              0
    ##  3    37 2               0 5        6      3               9 8              0
    ##  4    40 3               1 1        10     1               8 6              1
    ##  5    49 2               0 3        9      1               7 9              4
    ##  6    30 2               0 5        9      2               4 6              0
    ##  7    25 2               1 5        5      3              15 1              2
    ##  8    37 3               1 5        6      3              10 4              1
    ##  9    44 3               0 1        5      3               1 6              0
    ## 10    44 3               1 3        8      2               5 9              2
    ## # ℹ 5,575 more rows
    ## # ℹ 2 more variables: ASKSMOKE <fct>, DRINK12 <fct>
…
